<svg
  v-show="loading"
  class="spinner-icon"
  xmlns="http://www.w3.org/2000/svg"
  viewBox="0 0 26 26"
>
  <path
    fill="none"
    fill-rule="evenodd"
    stroke-linecap="round"
    stroke-width="2"
    d="M13 25c6.627 0 12-5.373 12-12S19.627 1 13 1 1 6.373 1 13c0 3.21 1.26 6.125 3.313 8.279"
  />
</svg>